﻿# Anbennar: commenting vanilla stuff

############################
# Norse Divergant Cultures #
############################
aesthetics_norwegian = {
	is_shown = {
		# scope:character = { # Anbennar
			# culture = {
				# has_cultural_pillar = heritage_north_germanic
			# }
			# any_sub_realm_county = {
				# any_this_title_or_de_jure_above = {
					# this = title:k_norway
				# }
			# }
			# NOT = {
				# culture = culture:norwegian
			# }
		# }
		always = no
	}
	
	name_list = name_list_norwegian

	coa_gfx = { norwegian_coa_gfx western_coa_gfx }
	building_gfx = { western_building_gfx }
	clothing_gfx = { northern_clothing_gfx }
	unit_gfx = { northern_unit_gfx }
}

aesthetics_swedish = {
	is_shown = {
		# scope:character = { # Anbennar
			# culture = {
				# has_cultural_pillar = heritage_north_germanic
			# }
			# any_sub_realm_county = {
				# any_this_title_or_de_jure_above = {
					# this = title:k_sweden
				# }
			# }
			# NOT = {
				# culture = culture:swedish
			# }
		# }
		always = no
	}
	
	name_list = name_list_swedish
	
	coa_gfx = { swedish_coa_gfx western_coa_gfx }
	building_gfx = { western_building_gfx }
	clothing_gfx = { northern_clothing_gfx }
	unit_gfx = { northern_unit_gfx }
}

aesthetics_danish = {
	is_shown = {
		# scope:character = { # Anbennar
			# culture = {
				# has_cultural_pillar = heritage_north_germanic
			# }
			# any_sub_realm_county = {
				# any_this_title_or_de_jure_above = {
					# this = title:k_denmark
				# }
			# }
			# NOT = {
				# culture = culture:danish
			# }
		# }
		always = no
	}
	
	name_list = name_list_danish
	
	coa_gfx = { danish_coa_gfx western_coa_gfx }
	building_gfx = { western_building_gfx }
	clothing_gfx = { northern_clothing_gfx }
	unit_gfx = { northern_unit_gfx }
}

##############################
# Spanish Divergant Cultures #
##############################
aesthetics_asturleonese = {
	is_shown = {
		# scope:character = { # Anbennar
			# culture = {
				# has_cultural_pillar = heritage_iberian
			# }
			# any_sub_realm_county = {
				# any_this_title_or_de_jure_above = {
					# this = title:k_leon
				# }
			# }
			# NOT = {
				# culture = culture:asturleonese
			# }
		# }
		always = no
	}
	
  	name_list = name_list_asturleonese
	
	coa_gfx = { leonese_coa_gfx iberian_group_coa_gfx western_coa_gfx }
	building_gfx = { iberian_building_gfx }
	clothing_gfx = { iberian_christian_clothing_gfx western_clothing_gfx }
	unit_gfx = { iberian_christian_unit_gfx }
}

aesthetics_portuguese = {
	is_shown = {
		# scope:character = { # Anbennar
			# culture = {
				# has_cultural_pillar = heritage_iberian
			# }
			# any_sub_realm_county = {
				# any_this_title_or_de_jure_above = {
					# OR = {
						# this = title:k_spanish_galicia
						# this = title:k_portugal
						# this = title:k_badajoz
					# }
				# }
			# }
			# NOT = {
				# culture = culture:portuguese
			# }
		# }
		always = no
	}

	name_list = name_list_portuguese
	
	coa_gfx = { iberian_group_coa_gfx western_coa_gfx }
	building_gfx = { iberian_building_gfx }
	clothing_gfx = { iberian_christian_clothing_gfx western_clothing_gfx }
	unit_gfx = { iberian_christian_unit_gfx }
}

aesthetics_castilian = {
	is_shown = {
		# scope:character = { # Anbennar
			# culture = {
				# has_cultural_pillar = heritage_iberian
			# }
			# any_sub_realm_county = {
				# any_this_title_or_de_jure_above = {
					# this = title:k_castille
				# }
			# }
			# NOT = {
				# culture = culture:castilian
			# }
		# }
		always = no
	}
	
	name_list = name_list_castilian
	
	coa_gfx = { castilian_coa_gfx iberian_group_coa_gfx western_coa_gfx }
	building_gfx = { iberian_building_gfx }
	clothing_gfx = { iberian_christian_clothing_gfx western_clothing_gfx }
	unit_gfx = { iberian_christian_unit_gfx }
}

############################
# Other Divergant Cultures #
############################
aesthetics_norman = {
	is_shown = {
		# scope:character = { # Anbennar
			# culture = {
				# has_cultural_pillar = heritage_north_germanic
			# }
			# any_sub_realm_county = {
				# any_this_title_or_de_jure_above = {
					# this = title:k_france
				# }
			# }
			# NOT = {
				# culture = culture:norman
			# }
		# }
		always = no
	}
	
	name_list = name_list_norman
	
	coa_gfx = { norman_coa_gfx frankish_group_coa_gfx western_coa_gfx }
	building_gfx = { western_building_gfx }
	clothing_gfx = { western_clothing_gfx }
	unit_gfx = { western_unit_gfx }
}

aesthetics_scottish = {
	is_shown = {
		# scope:character = { # Anbennar
			# any_sub_realm_county = {
				# any_this_title_or_de_jure_above = {
					# this = title:k_scotland
				# }
			# }
			# culture = {
				# OR = {
					# has_cultural_pillar = heritage_west_germanic
					# has_cultural_pillar = heritage_goidelic
				# }
				# OR = {
					# has_cultural_pillar = language_anglic
					# has_cultural_pillar = language_goidelic
				# }
			# }
			# NOT = {
				# culture = culture:scottish
			# }
		# }
		always = no
	}
	
	name_list = name_list_gaelic
	
	coa_gfx = { scottish_coa_gfx western_coa_gfx }
	building_gfx = { western_building_gfx }
	clothing_gfx = { northern_clothing_gfx }
	unit_gfx = { western_unit_gfx }
}

aesthetics_sicilian = {
	is_shown = {
		# scope:character = { # Anbennar
			# any_sub_realm_county = {
				# any_this_title_or_de_jure_above = {
					# this = title:k_sicily
				# }
			# }
			# culture = {
				# OR = {
					# has_cultural_pillar = heritage_north_germanic
					# has_cultural_pillar = heritage_frankish
					# has_cultural_pillar = heritage_berber
					# has_cultural_pillar = heritage_byzantine
					# has_cultural_pillar = heritage_latin
				# }
				# OR = {
					# has_cultural_pillar = language_norse
					# has_cultural_pillar = language_frankish
					# has_cultural_pillar = language_berber
					# has_cultural_pillar = language_armenian
					# has_cultural_pillar = language_greek
					# has_cultural_pillar = language_georgian
					# has_cultural_pillar = heritage_latin
				# }
			# }
			# NOT = {
				# culture = culture:sicilian
			# }
		# }
		always = no
	}
	
	name_list = name_list_sicilian
	
	coa_gfx = { latin_group_coa_gfx western_coa_gfx }
	building_gfx = { mediterranean_building_gfx }
	clothing_gfx = { western_clothing_gfx }
	unit_gfx = { western_unit_gfx }
}
