﻿
###############
# Dynasty Lorentis

lorenan_the_great = { # Lorenan the Great
	name = "Lorenan"
	dynasty = dynasty_lorentis
	religion = court_of_adean
	culture = lorenti
	
	trait = race_human
	trait = education_martial_4
	trait = ambitious
	trait = brave
	trait = honest
	trait = strategist
	trait = august
	trait = open_terrain_expert
	trait = lifestyle_blademaster
	trait = intellect_good_2
	
	495.11.23 = {
		birth = yes
	}
	
	525.12.25 = {
		give_nickname = nick_the_great
	}
	
	589.1.28 = {
		death = {
			death_reason = death_old_age
		}
	}
}

# House Rubentis, founded by Ruben, first son of Lorenan the Great

rubentis_0001 = { # Ruben I Rubentis, High King of Lencenor, King of Redfort and Carneter
	name = "Ruben"
	dynasty_house = house_rubentis
	religion = court_of_adean
	culture = lorenti
	
	trait = race_human
	trait = education_stewardship_3
	trait = patient
	trait = diligent
	trait = gregarious
	
	father = lorenan_the_great
	
	520.9.8 = {
		birth = yes
	}
	
	595.2.18 = {
		death = {
			death_reason = death_old_age
		}
	}
}

rubentis_0002 = { # Ruben "the Younger" Rubentis, son of Ruben I
	name = "Ruben"
	dynasty_house = house_rubentis
	religion = court_of_adean
	culture = lorenti
	
	trait = race_human
	trait = education_diplomacy_1
	trait = patient
	trait = gregarious
	trait = gluttonous
	
	father = rubentis_0001
	
	541.3.31 = {
		birth = yes
		give_nickname = nick_the_younger
	}
	
	584.1.24 = {
		death = "584.1.24"
	}
}

rubentis_0003 = { # Moruen Rubentis, daughter of Ruben "the Younger"
	name = "Moruen"
	dynasty_house = house_rubentis
	religion = court_of_adean
	culture = lorenti
	female = yes
	
	trait = race_human
	
	father = rubentis_0001
	
	545.6.7 = {
		birth = yes
	}
	
	600.2.14 = {
		death = "600.2.14"
	}
}

rubentis_0004 = { # Ruben II Rubentis, High King of Lencenor, King of Redfort and Carneter
	name = "Ruben"
	dynasty_house = house_rubentis
	religion = court_of_adean
	culture = lorenti
	
	trait = race_human
	
	father = rubentis_0002
	
	562.2.15 = {
		birth = yes
	}
	
	600.3.16 = {
		death = "600.3.16"
	}
}

rubentis_0005 = { # Emmeran I Rubentis, King of Carneter
	name = "Emmeran"
	dynasty_house = house_rubentis
	religion = court_of_adean
	culture = lorenti
	
	trait = race_human
	
	father = rubentis_0004
	
	590.11.10 = {
		birth = yes
	}
	
	635.3.12 = {
		death = "635.3.12"
	}
}

rubentis_0006 = { # Ruben III Rubentis, King of Carneter
	name = "Ruben"
	dynasty_house = house_rubentis
	religion = court_of_adean
	culture = carnetori
	
	trait = race_human
	
	father = rubentis_0005
	
	625.3.10 = {
		birth = yes
	}
	
	667.6.22 = {
		death = "667.6.22"
	}
}

rubentis_0007 = { # Emmeran II Rubentis, King of Carneter
	name = "Emmeran"
	dynasty_house = house_rubentis
	religion = court_of_adean
	culture = carnetori
	
	trait = race_human
	
	father = rubentis_0006
	
	644.12.18 = {
		birth = yes
	}
	
	698.1.28 = {
		death = "698.1.28"
	}
}

rubentis_0008 = { # Lorenan I Rubentis, King of Carneter
	name = "Lorenan"
	dynasty_house = house_rubentis
	religion = court_of_adean
	culture = carnetori
	
	trait = race_human
	
	father = rubentis_0007
	
	667.4.30 = {
		birth = yes
	}
	
	705.9.14 = {
		death = "705.9.14"
	}
}

rubentis_0009 = { # Sofie Rubentis, daughter of Lorenan I
	name = "Sofie"
	dynasty_house = house_rubentis
	religion = court_of_adean
	culture = carnetori
	female = yes
	
	trait = race_human
	
	father = rubentis_0007
	
	689.10.17 = {
		birth = yes
	}
	
	731.4.21 = {
		death = "731.4.21"
	}
}

rubentis_0010 = { # Lorendal Rubentis, son of Ruben III
	name = "Lorendal"
	dynasty_house = house_rubentis
	religion = court_of_adean
	culture = carnetori
	
	trait = race_human
	
	father = rubentis_0006
	
	651.4.17 = {
		birth = yes
	}
	
	689.3.8 = {
		death = "689.3.8"
	}
}

rubentis_0011 = { # Ruben IV Rubentis, King of Carneter
	name = "Ruben"
	dynasty_house = house_rubentis
	religion = court_of_adean
	culture = carnetori
	
	trait = race_human
	
	father = rubentis_0010
	
	677.7.19 = {
		birth = yes
	}
	
	720.8.2 = {
		death = "720.8.2"
	}
}

rubentis_0012 = { # Ruben V/I "the Wise" Rubentis, King of Carneter and Dameria
	name = "Ruben"
	dynasty_house = house_rubentis
	religion = court_of_adean
	culture = carnetori
	
	trait = race_human
	trait = education_diplomacy_4
	trait = patient
	trait = diligent
	trait = just
	trait = diplomat
	
	father = rubentis_0011
	
	701.5.29 = {
		birth = yes
		give_nickname = nick_the_wise
	}
	
	770.7.31 = {
		death = "770.7.31"
	}
}

rubentis_0013 = { # Lorenan II/I Rubentis, King of Carneter and Dameria
	name = "Lorenan"
	dynasty_house = house_rubentis
	religion = court_of_adean
	culture = carnetori
	
	trait = race_human
	
	father = rubentis_0012
	
	723.3.8 = {
		birth = yes
	}
	
	750.1.9 = {
		add_spouse = caylentis_0020
	}
	
	783.10.15 = {
		death = "783.10.15"
	}
}

rubentis_0014 = { # Giséle Rubentis, daughter of Ruben V, wife of Maren Rubentis
	name = "Gisele"
	dynasty_house = house_rubentis
	religion = court_of_adean
	culture = carnetori
	female = yes
	
	trait = race_human
	
	father = rubentis_0012
	
	726.5.31 = {
		birth = yes
	}
	
	747.6.2 = {
		add_spouse = rewantis_0011
	}
	
	762.4.3 = {
		death = "762.4.3"
	}
}

rubentis_0015 = { # Lorendal Rubentis, son of Ruben V
	name = "Lorendal"
	dynasty_house = house_rubentis
	religion = court_of_adean
	culture = carnetori
	
	trait = race_human
	
	father = rubentis_0012
	
	731.2.12 = {
		birth = yes
	}
	
	774.9.29 = {
		death = "774.9.29"
	}
}

rubentis_0016 = { # Isobelle Rubentis, daughter of Ruben V, wife of Caylen V Caylentis
	name = "Isobelle"
	dynasty_house = house_rubentis
	religion = court_of_adean
	culture = carnetori
	female = yes
	
	trait = race_human
	
	father = rubentis_0012
	
	736.3.26 = {
		birth = yes
	}
	
	753.9.13 = {
		add_spouse = caylentis_0021
	}
	
	784.9.7 = {
		death = "784.9.7"
	}
}

rubentis_0017 = { # Margery Rubentis, daughter of Ruben V
	name = "Margery"
	dynasty_house = house_rubentis
	religion = court_of_adean
	culture = carnetori
	female = yes
	
	trait = race_human
	
	father = rubentis_0012
	
	744.6.30 = {
		birth = yes
	}
	
	795.1.29 = {
		death = "795.1.29"
	}
}

rubentis_0018 = { # Ruben VI/II Rubentis, King of Carneter and Dameria
	name = "Ruben"
	dynasty_house = house_rubentis
	religion = court_of_adean
	culture = carnetori
	
	trait = race_human
	
	father = rubentis_0013
	mother = caylentis_0020
	
	755.7.6 = {
		birth = yes
	}
	
	801.3.18 = {
		death = "801.3.18"
	}
}

rubentis_0019 = { # Emmeran III/I Rubentis, King of Carneter and Dameria
	name = "Emmeran"
	dynasty_house = house_rubentis
	religion = court_of_adean
	culture = carnetori
	
	trait = race_human
	
	father = rubentis_0018
	
	784.8.31 = {
		birth = yes
	}
	
	831.9.12 = {
		death = "831.9.12"
	}
}

rubentis_0020 = { # Ruben VII/III Rubentis, King of Carneter and Dameria
	name = "Ruben"
	dynasty_house = house_rubentis
	religion = court_of_adean
	culture = carnetori
	
	trait = race_human
	
	father = rubentis_0019
	
	802.5.9 = {
		birth = yes
	}
	
	861.12.7 = {
		death = "861.12.7"
	}
}

rubentis_0021 = { # Laurenne Rubentis, daughter of Emmeran III
	name = "Laurenne"
	dynasty_house = house_rubentis
	religion = court_of_adean
	culture = carnetori
	female = yes
	
	trait = race_human
	
	father = rubentis_0019
	
	807.9.30 = {
		birth = yes
	}
	
	867.5.19 = {
		death = "867.5.19"
	}
}

rubentis_0022 = { # Lorenan III/II Rubentis, King of Carneter and Dameria (and Redfort temporarily)
	name = "Lorenan"
	dynasty_house = house_rubentis
	religion = court_of_adean
	culture = carnetori
	
	trait = race_human
	
	father = rubentis_0020
	
	841.3.1 = {
		birth = yes
	}
	
	897.8.30 = {
		death = {
			death_reason = death_sea_storm
		}
	}
}

rubentis_0023 = { # Emmeran IV Rubentis, last Rubentis King of Carneter
	name = "Emmeran"
	dynasty_house = house_rubentis
	religion = court_of_adean
	culture = carnetori
	
	trait = race_human
	
	father = rubentis_0022
	
	870.5.29 = {
		birth = yes
	}
	
	899.10.30 = {
		death = "899.10.30"
	}
}

rubentis_0024 = { # Isobelle, daughter of Emmeran IV, wife of Ernmund I of Pearlsedge
	name = "Isobelle"
	dynasty_house = house_rubentis
	religion = court_of_adean
	culture = carnetori
	female = yes
	
	trait = race_human
	
	father = rubentis_0023
	
	897.3.13 = {
		birth = yes
	}
	
	960.8.18 = {
		death = "960.8.18"
	}
}

# House Rewantis, founded by Rewan, second son of Lorenan the Great

rewantis_0001 = { # Rewan I "Ironbark" Rewantis, King of Redwood
	name = "Rewan"
	dynasty_house = house_rewantis
	religion = court_of_adean
	culture = lorenti
	
	trait = race_human
	trait = education_martial_3
	trait = temperate
	trait = diligent
	trait = calm
	trait = unyielding_defender
	trait = overseer
	
	father = lorenan_the_great
	
	523.8.30 = {
		birth = yes
		give_nickname = nick_ironbark
	}
	
	545.3.9 = {
		add_spouse = harascilde_0004
	}
	
	582.12.2 = {
		death = "582.12.2"
	}
}

rewantis_0002 = { # Laurenne Rewantis, daughter of Rewan I
	name = "Laurenne"
	dynasty_house = house_rewantis
	religion = court_of_adean
	culture = lorenti
	female = yes
	
	trait = race_human
	
	father = rewantis_0001
	mother = harascilde_0004
	
	547.8.31 = {
		birth = yes
	}
	
	595.11.7 = {
		death = "595.11.7"
	}
}

rewantis_0003 = { # Lorenan Rewantis, son of Rewan I
	name = "Lorenan"
	dynasty_house = house_rewantis
	religion = court_of_adean
	culture = lorenti
	
	trait = race_human
	
	father = rewantis_0001
	mother = harascilde_0004
	
	550.5.5 = {
		birth = yes
	}
	
	563.3.4 = {
		death = "563.3.4"
	}
}

rewantis_0004 = { # Maren I Rewantis, King of Redwood
	name = "Maren"
	dynasty_house = house_rewantis
	religion = court_of_adean
	culture = lorenti
	
	trait = race_human
	trait = education_stewardship_2
	trait = chaste
	trait = zealous
	trait = brave
	
	father = rewantis_0001
	
	569.5.10 = {
		birth = yes
	}
	
	623.9.28 = {
		death = "623.9.28"
	}
}

rewantis_0005 = { # Rewan II Rewantis, King of Redwood
	name = "Rewan"
	dynasty_house = house_rewantis
	religion = court_of_adean
	culture = lorenti
	
	trait = race_human
	
	father = rewantis_0004
	
	597.6.13 = {
		birth = yes
	}
	
	641.3.31 = {
		death = "641.3.31"
	}
}

rewantis_0006 = { # Loren I Rewantis, King of Redwood
	name = "Loren"
	dynasty_house = house_rewantis
	religion = court_of_adean
	culture = lorenti
	
	trait = race_human
	
	father = rewantis_0005
	
	620.5.2 = {
		birth = yes
	}
	
	665.2.10 = {
		death = "665.2.10"
	}
}

rewantis_0007 = { # Maren II Rewantis, King of Redwood
	name = "Maren"
	dynasty_house = house_rewantis
	religion = court_of_adean
	culture = lorenti
	
	trait = race_human
	
	father = rewantis_0006
	
	640.6.13 = {
		birth = yes
	}
	
	670.9.18 = {
		death = "670.9.18"
	}
}

rewantis_0008 = { # Rewan III Rewantis, King of Redwood
	name = "Rewan"
	dynasty_house = house_rewantis
	religion = court_of_adean
	culture = lorenti
	
	trait = race_human
	
	father = rewantis_0006
	
	649.10.1 = {
		birth = yes
	}
	
	695.1.3 = {
		death = "695.1.3"
	}
}

rewantis_0009 = { # Maren III "the Poet" Rewantis, King of Redwood
	name = "Maren"
	dynasty_house = house_rewantis
	religion = court_of_adean
	culture = lorenti
	
	trait = race_human
	
	trait = poet
	
	father = rewantis_0008
	
	672.4.12 = {
		birth = yes
		give_nickname = nick_the_poet
	}
	
	724.10.10 = {
		death = "724.10.10"
	}
}

rewantis_0010 = { # Rewan IV "the Grey" Rewantis, King of Redwood
	name = "Rewan"
	dynasty_house = house_rewantis
	religion = court_of_adean
	culture = lorenti
	
	trait = race_human
	
	father = rewantis_0009
	
	698.7.12 = {
		birth = yes
		give_nickname = nick_the_grey
	}
	
	770.9.8 = {
		death = "770.9.8"
	}
}

rewantis_0011 = { # Maren Rewantis, son of Rewan IV
	name = "Maren"
	dynasty_house = house_rewantis
	religion = court_of_adean
	culture = lorenti
	
	trait = race_human
	
	father = rewantis_0010
	
	729.4.12 = {
		birth = yes
	}
	
	747.6.2 = {
		add_spouse = rubentis_0014
	}
	
	765.5.10 = {
		death = "765.5.10"
	}
}

rewantis_0012 = { # Ruben I Rewantis, King of Redwood
	name = "Ruben"
	dynasty_house = house_rewantis
	religion = court_of_adean
	culture = lorenti
	
	trait = race_human
	
	father = rewantis_0011
	mother = rubentis_0014
	
	750.6.17 = {
		birth = yes
	}
	
	801.11.2 = {
		death = "801.11.2"
	}
}

rewantis_0013 = { # Giséle Rewantis
	name = "Gisele"
	dynasty_house = house_rewantis
	religion = court_of_adean
	culture = lorenti
	female = yes
	
	trait = race_human
	
	father = rewantis_0011
	mother = rubentis_0014
	
	762.2.11 = {
		birth = yes
	}
	
	813.8.30 = {
		death = "813.8.30"
	}
}

rewantis_0014 = { # Rewan V "the White", King of Redwood
	name = "Rewan"
	dynasty_house = house_rewantis
	religion = court_of_adean
	culture = lorenti
	
	trait = race_human
	trait = albino
	
	father = rewantis_0012
	
	770.4.16 = {
		birth = yes
		give_nickname = nick_the_white
	}
	
	814.10.5 = {
		death = "814.10.5"
	}
}

rewantis_0015 = { # Sorewan I Rewantis, King of Redwood
	name = "Sorewan"
	dynasty_house = house_rewantis
	religion = court_of_adean
	culture = lorenti
	
	trait = race_human
	
	father = rewantis_0014
	
	790.3.7 = {
		birth = yes
	}
	
	844.10.16 = {
		death = "844.10.16"
	}
}

rewantis_0016 = { # Elesbed "the Pale Maiden", daughter of Rewan V
	name = "Elesbed"
	dynasty_house = house_rewantis
	religion = court_of_adean
	culture = lorenti
	female = yes
	
	trait = race_human
	trait = education_learning_2
	trait = chaste
	trait = shy
	trait = forgiving
	trait = albino
	
	father = rewantis_0014
	
	793.12.18 = {
		birth = yes
		give_nickname = nick_the_pale_maiden
	}
	
	843.2.12 = {
		death = "843.2.12"
	}
}

rewantis_0017 = { # Rewan VI Rewantis, King of Redwood
	name = "Rewan"
	dynasty_house = house_rewantis
	religion = court_of_adean
	culture = lorenti
	
	trait = race_human
	
	father = rewantis_0015
	
	816.10.11 = {
		birth = yes
	}
	
	860.4.9 = {
		death = "860.4.9"
	}
}

rewantis_0018 = { # Lorevarn I Rewantis, King of Redwood
	name = "Lorevarn"
	dynasty_house = house_rewantis
	religion = court_of_adean
	culture = lorenti
	
	trait = race_human
	
	father = rewantis_0017
	
	846.1.16 = {
		birth = yes
	}
	
	868.12.8 = {
		add_spouse = harascilde_0019
	}
	
	879.5.10 = {
		death = {
			death_reason = death_ill
		}
	}
}

rewantis_0019 = { # Loren II Rewantis, Duke of Rewanwood
	name = "Loren"
	dynasty_house = house_rewantis
	religion = court_of_adean
	culture = lorenti
	
	trait = race_human
	
	father = rewantis_0018
	mother = harascilde_0019
	
	878.9.15 = {
		birth = yes
	}
	
	937.4.11 = {
		death = "937.4.11"
	}
}

rewantis_0020 = { # Rewan VII Rewantis, Duke of Rewanwood
	name = "Rewan"
	dynasty_house = house_rewantis
	religion = court_of_adean
	culture = lorenti
	
	trait = race_human
	
	father = rewantis_0019
	
	910.8.15 = {
		birth = yes
	}
	
	927.4.20 = {
		add_spouse = caradantis_0005
	}
	
	957.11.6 = {
		death = "957.11.6"
	}
}

rewantis_0021 = { # Elenor Rewantis, daughter of Rewan
	name = "Elenor"
	dynasty_house = house_rewantis
	religion = court_of_adean
	culture = lorenti
	female = yes
	
	trait = race_human
	
	father = rewantis_0020
	mother = caradantis_0005
	
	928.5.5 = {
		birth = yes
	}
	
	972.4.13 = {
		death = "972.4.13"
	}
}

rewantis_0022 = { # Loren III Rewantis, Duke of Rewanwood
	name = "Loren"
	dynasty_house = house_rewantis
	religion = court_of_adean
	culture = lorenti
	
	trait = race_human
	
	father = rewantis_0020
	mother = caradantis_0005
	
	935.9.14 = {
		birth = yes
	}
	
	990.10.26 = {
		death = "990.10.26"
	}
}

rewantis_0023 = { # Arthel Rewantis, Duke of Rewanwood
	name = "Arthel"
	dynasty_house = house_rewantis
	religion = court_of_adean
	culture = lorenti
	
	trait = race_human
	trait = education_martial_4
	trait = holy_warrior
	trait = brave
	trait = stubborn
	trait = zealous
	
	father = rewantis_0022
	
	970.6.15 = {
		birth = yes
	}
	
	1014.2.6 = { #Storming of Vertesk
		death = {
			death_reason = death_killed_war_of_sorcerer_king
		}
	}
}

rewantis_0024 = { # Lorendal Rewantis, son of Loren III
	name = "Lorendal"
	dynasty_house = house_rewantis
	religion = court_of_adean
	culture = lorenti
	
	father = rewantis_0022
	
	976.1.9 = {
		birth = yes
	}
	
	1028.6.18 = {
		death = "1028.6.18"
	}
}

rewantis_0025 = { # Jaspar Rewantis, Duke of Rewanwood
	name = "Jaspar"
	dynasty_house = house_rewantis
	religion = court_of_adean
	culture = lorenti
	dna = 105_jaspar_rewantis
	
	trait = race_human
	trait = education_diplomacy_3
	trait = aggressive_attacker
	trait = vengeful
	trait = wrathful
	trait = just
	
	father = rewantis_0023
	
	994.8.11 = {
		birth = yes
		effect = {
			add_character_flag = has_scripted_appearance
		}
	}
}

rewantis_0026 = { # Laurenne Rewantis, son of Arthel
	name = "Laurenne"
	dynasty_house = house_rewantis
	religion = court_of_adean
	culture = lorenti
	female = yes
	
	father = rewantis_0023
	
	998.12.4 = {
		birth = yes
	}
	
	1053.7.30 = {
		death = "1053.7.30"
	}
}

# House Caradantis, cadet branch of Rewantis

caradantis_0001 = { # Caradan Caradantis, Duke of Rosefield
	name = "Caradan"
	dynasty_house = house_caradantis
	religion = court_of_adean
	culture = lorenti
	
	trait = race_human
	
	father = rewantis_0017
	
	850.7.28 = {
		birth = yes
	}
	
	905.2.12 = {
		death = "905.2.12"
	}
}

caradantis_0002 = { # Lorenan I Caradantis, Duke of Rosefield
	name = "Lorenan"
	dynasty_house = house_caradantis
	religion = court_of_adean
	culture = lorenti
	
	trait = race_human
	
	father = caradantis_0001
	
	872.7.11 = {
		birth = yes
	}
	
	919.1.12 = {
		death = "919.1.12"
	}
}

caradantis_0003 = { # Lorenan Caradantis
	name = "Lorenan"
	dynasty_house = house_caradantis
	religion = court_of_adean
	culture = lorenti
	
	trait = race_human
	
	father = caradantis_0002
	
	889.5.4 = {
		birth = yes
	}
	
	906.9.28 = {
		death = "906.9.28"
	}
}

caradantis_0004 = { # Maren I Caradantis, Duke of Rosefield
	name = "Maren"
	dynasty_house = house_caradantis
	religion = court_of_adean
	culture = lorenti
	
	trait = race_human
	
	father = caradantis_0002
	
	903.8.5 = {
		birth = yes
	}
	
	949.12.9 = {
		death = "949.12.9"
	}
}

caradantis_0005 = { # Alara Caradantis
	name = "Alara"
	dynasty_house = house_caradantis
	religion = court_of_adean
	culture = lorenti
	female = yes
	
	trait = race_human
	
	father = caradantis_0002
	
	905.10.4 = {
		birth = yes
	}
	
	927.4.20 = {
		add_spouse = rewantis_0020
	}
	
	946.5.30 = {
		death = "946.5.30"
	}
}

caradantis_0006 = { # Emmeran Caradantis, Duke of Rosefield
	name = "Emmeran"
	dynasty_house = house_caradantis
	religion = court_of_adean
	culture = lorenti
	
	trait = race_human
	
	father = caradantis_0004
	
	928.10.1 = {
		birth = yes
	}
	
	946.6.5 = {
		add_spouse = harascilde_0023
	}
	
	969.3.12 = {
		death = "969.3.12"
	}
}

caradantis_0007 = { # Elesbed Caradantis
	name = "Elesbed"
	dynasty_house = house_caradantis
	religion = court_of_adean
	culture = lorenti
	female = yes
	
	trait = race_human
	
	father = caradantis_0004
	
	932.12.19 = {
		birth = yes
	}
	
	952.1.9 = {
		add_spouse = harascilde_0024
	}
	
	978.3.7 = {
		death = "978.3.7"
	}
}

caradantis_0008 = { # Roband Caradantis, first husband of Reanna II, father of Rewan III
	name = "Robald"
	dynasty_house = house_caradantis
	religion = court_of_adean
	culture = lorenti
	
	trait = race_human
	trait = education_martial_3
	trait = compassionate
	trait = brave
	trait = arrogant
	trait = aggressive_attacker
	
	father = caradantis_0004
	
	935.6.30 = {
		birth = yes
	}
	
	964.8.15 = {
		add_matrilineal_spouse = lorentis_0007
	}
	
	978.7.12 = {
		death = "978.7.12"
	}
}

caradantis_0009 = { # Lorenan II Caradantis, Duke of Rosefield, died in battle against Castanor
	name = "Lorenan"
	dynasty_house = house_caradantis
	religion = court_of_adean
	culture = lorenti
	
	trait = race_human
	
	father = caradantis_0006
	mother = harascilde_0023
	
	947.7.19 = {
		birth = yes
	}
	
	1000.2.12 = {
		death = {
			death_reason = death_killed_war_of_sorcerer_king
		}
	}
}

caradantis_0010 = { # Caradan Caradantis
	name = "Caradan"
	dynasty_house = house_caradantis
	religion = court_of_adean
	culture = lorenti
	
	trait = race_human
	
	father = caradantis_0006
	mother = harascilde_0023
	
	948.5.14 = {
		birth = yes
	}
	
	981.8.11 = {
		death = "981.8.11"
	}
}

caradantis_0011 = { # Isobel Caradantis, bastard daughter of Duke Emmeran, mother of Korvin Sil Lasean
	name = "Isobel"
	dynasty_house = house_caradantis
	religion = court_of_adean
	culture = lorenti
	female = yes
	
	trait = race_human
	trait = bastard
	
	father = caradantis_0006
	
	949.4.22 = {
		birth = yes
	}
	
	990.1.8 = {
		death = "990.1.8"
	}
}

caradantis_0012 = { # Alara Caradatis, daughter of Duke Lorenan II
	name = "Alara"
	dynasty_house = house_caradantis
	religion = court_of_adean
	culture = lorenti
	female = yes
	
	trait = race_human
	
	father = caradantis_0009
	
	964.3.1 = {
		birth = yes
	}
	
	1014.11.29 = {
		death = "1014.11.29"
	}
}

caradantis_0013 = { # Lorevarn Caradantis, son of Duke Lorenan II, died in battle against Castanor
	name = "Lorevarn"
	dynasty_house = house_caradantis
	religion = court_of_adean
	culture = lorenti
	
	trait = race_human
	
	father = caradantis_0009
	
	966.7.2 = {
		birth = yes
	}
	
	1000.2.12 = {
		death = {
			death_reason = death_killed_war_of_sorcerer_king
		}
	}
}

caradantis_0014 = { # Emmeran Caradantis, son of Duke Lorenan II, died in battle against Castanor
	name = "Emmeran"
	dynasty_house = house_caradantis
	religion = court_of_adean
	culture = lorenti
	
	trait = race_human
	
	father = caradantis_0009
	
	970.9.7 = {
		birth = yes
	}
	
	1000.2.12 = {
		death = {
			death_reason = death_killed_war_of_sorcerer_king
		}
	}
}

caradantis_0015 = { # Maren Caradatis, Duke of Rosefield
	name = "Maren"
	dynasty_house = house_caradantis
	religion = court_of_adean
	culture = lorenti
	
	trait = race_human
	
	father = caradantis_0009
	
	975.11.17 = {
		birth = yes
	}
	
	1001.5.17 = {
		death = {
			death_reason = death_killed_war_of_sorcerer_king
		}
	}
}

# House Lasean, founded by Korvin "Rose Devil" Sil Lasean

lasean_0001 = {
	name = "Korvin"
	dynasty = dynasty_lasean
	religion = court_of_adean
	culture = lorenti
	
	trait = race_human
	trait = education_martial_3
	trait = brave
	trait = vengeful
	trait = paranoid
	trait = scarred
	trait = organizer
	trait = flexible_leader
	disallow_random_traits = yes
	
	mother = caradantis_0011
	
	977.10.10 = {
		birth = yes
	}
	
	999.4.18 = {
		give_nickname = nick_rose_devil
	}
	
	1021.11.1 = {
		add_spouse = lasean_0002
	}
	
	1050.9.11 = {
		death = "1050.9.11"
	}
}

lasean_0002 = {
	name = "Erelassa"
	# lowborn
	religion = court_of_adean
	culture = moon_elvish
	female = yes
	
	trait = race_elf
	trait = education_diplomacy_3
	trait = craven
	trait = forgiving
	trait = trusting
	trait = beauty_good_2
	
	883.2.11 = {
		birth = yes
	}
	
	1021.11.1 = {
		add_spouse = lasean_0001
	}
}

# House Caylentis, founded by Caylen, third son of Lorenan the Great

caylentis_0001 = { # Caylen I Caylentis, King of Enteben
	name = "Caylen"
	dynasty_house = house_caylentis
	religion = court_of_adean
	culture = entebenic
	
	trait = race_human
	trait = education_martial_3
	trait = ambitious
	trait = arrogant
	trait = stubborn
	
	father = lorenan_the_great
	
	525.9.11 = {
		birth = yes
	}
	
	541.10.10 = {
		add_spouse = enteba_0001
	}
	
	605.4.14 = {
		death = {
			death_reason = death_old_age
		}
	}
}

enteba_0001 = { # Herlinda Enteba, princess of Enteben, wife of Caylen I
	name = "Herlinda"
	dynasty = dynasty_enteba
	religion = court_of_adean
	culture = entebenic
	female = yes
	
	trait = race_human
	
	525.3.11 = {
		birth = yes
	}
	
	541.10.10 = {
		add_spouse = caylentis_0001
	}
	
	592.12.13 = {
		death = "592.12.13"
	}
}

caylentis_0002 = { # Avandrec Caylentis, daughter of Caylen I
	name = "Avandrec"
	dynasty_house = house_caylentis
	religion = court_of_adean
	culture = entebenic
	female = yes
	
	trait = race_human
	
	father = caylentis_0001
	mother = enteba_0001
	
	552.10.14 = {
		birth = yes
	}
	
	594.8.28 = {
		death = "594.8.28"
	}
}

caylentis_0003 = { # Anaudrec Caylentis, daughter of Caylen I
	name = "Anaudrec"
	dynasty_house = house_caylentis
	religion = court_of_adean
	culture = entebenic
	female = yes
	
	trait = race_human
	
	father = caylentis_0001
	mother = enteba_0001
	
	557.5.9 = {
		birth = yes
	}
	
	614.9.17 = {
		death = "614.9.17"
	}
}

caylentis_0004 = { # Trystane I Caylentis, King of Enteben
	name = "Trystane"
	dynasty_house = house_caylentis
	religion = court_of_adean
	culture = entebenic
	
	trait = race_human
	trait = education_stewardship_1
	trait = honest
	trait = diligent
	trait = cynical
	
	father = caylentis_0001
	mother = enteba_0001
	
	561.2.8 = {
		birth = yes
	}
	
	622.9.15 = {
		death = "622.9.15"
	}
}

caylentis_0005 = { # Caylen II Caylentis, King of Enteben
	name = "Caylen"
	dynasty_house = house_caylentis
	religion = court_of_adean
	culture = entebenic
	
	trait = race_human
	trait = education_diplomacy_2
	trait = just
	trait = calm
	trait = content
	
	father = caylentis_0004
	
	593.1.23 = {
		birth = yes
	}
	
	640.4.7 = {
		death = "640.4.7"
	}
}

caylentis_0006 = { # Caylen III Caylentis, King of Enteben
	name = "Caylen"
	dynasty_house = house_caylentis
	religion = court_of_adean
	culture = entebenic
	
	trait = race_human
	
	father = caylentis_0005
	
	612.8.11 = {
		birth = yes
	}
	
	659.11.30 = {
		death = "659.11.30"
	}
}

caylentis_0007 = { # Avandrec Caylentis, daughter of Caylen III
	name = "Avandrec"
	dynasty_house = house_caylentis
	religion = court_of_adean
	culture = entebenic
	female = yes
	
	trait = race_human
	
	father = caylentis_0006
	
	640.4.5 = {
		birth = yes
	}
	
	660.11.18 = {
		add_spouse = caylentis_0016
	}
	
	696.10.12 = {
		death = "696.10.12"
	}
}

caylentis_0008 = { # Lorenan Caylentis, Duke of Great Ording
	name = "Lorenan"
	dynasty_house = house_caylentis
	religion = court_of_adean
	culture = entebenic
	
	trait = race_human
	
	father = caylentis_0001
	mother = enteba_0001
	
	567.8.10 = {
		birth = yes
	}
	
	624.7.14 = {
		death = "624.7.14"
	}
}

caylentis_0009 = { # Caylen Caylentis, Duke of Great Ording
	name = "Caylen"
	dynasty_house = house_caylentis
	religion = court_of_adean
	culture = entebenic
	
	trait = race_human
	
	father = caylentis_0008
	
	596.5.5 = {
		birth = yes
	}
	
	641.5.11 = {
		death = "641.5.11"
	}
}

caylentis_0010 = { # Castant Caylentis, Duke of Great Ording
	name = "Castant"
	dynasty_house = house_caylentis
	religion = court_of_adean
	culture = entebenic
	
	trait = race_human
	
	father = caylentis_0009
	
	620.4.28 = {
		birth = yes
	}
	
	673.10.10 = {
		death = "673.10.10"
	}
}

caylentis_0011 = { # Adela Caylentis, daughter of Castant
	name = "Adela"
	dynasty_house = house_caylentis
	religion = court_of_adean
	culture = entebenic
	female = yes
	
	trait = race_human
	
	father = caylentis_0010
	
	645.7.28 = {
		birth = yes
	}
	
	673.2.6 = {
		death = "673.2.6"
	}
}

caylentis_0012 = { # Mona Caylentis, daughter of Castant
	name = "Mona"
	dynasty_house = house_caylentis
	religion = court_of_adean
	culture = entebenic
	female = yes
	
	trait = race_human
	
	father = caylentis_0010
	
	649.3.30 = {
		birth = yes
	}
	
	697.5.11 = {
		death = "697.5.11"
	}
}

caylentis_0013 = { # Alain I Caylentis, Duke of Darom
	name = "Alain"
	dynasty_house = house_caylentis
	religion = court_of_adean
	culture = entebenic
	
	trait = race_human
	
	father = caylentis_0001
	mother = enteba_0001
	
	569.9.17 = {
		birth = yes
	}
	
	607.7.2 = {
		death = {
			death_reason = death_ill
		}
	}
}

caylentis_0014 = { # Adrien I Caylentis, Duke of Darom
	name = "Adrien"
	dynasty_house = house_caylentis
	religion = court_of_adean
	culture = entebenic
	
	trait = race_human
	
	father = caylentis_0013
	
	592.3.31 = {
		birth = yes
	}
	
	638.10.7 = {
		death = "638.10.7"
	}
}

caylentis_0015 = { # Alain II Caylentis, Duke of Darom
	name = "Alain"
	dynasty_house = house_caylentis
	religion = court_of_adean
	culture = entebenic
	
	trait = race_human
	
	father = caylentis_0014
	
	618.3.5 = {
		birth = yes
	}
	
	659.12.29 = {
		death = "659.12.29"
	}
}

caylentis_0016 = { # Aedan I Caylentis, King of Enteben
	name = "Aedan"
	dynasty_house = house_caylentis
	religion = court_of_adean
	culture = entebenic
	
	trait = race_human
	
	father = caylentis_0015
	
	638.6.17 = {
		birth = yes
	}
	
	660.11.18 = {
		add_spouse = caylentis_0007
	}
	
	690.8.12 = {
		death = "690.8.12"
	}
}

caylentis_0017 = { # Caylen IV Caylentis, King of Enteben
	name = "Caylen"
	dynasty_house = house_caylentis
	religion = court_of_adean
	culture = entebenic
	
	trait = race_human
	
	father = caylentis_0016
	mother = caylentis_0007
	
	675.9.9 = {
		birth = yes
	}
	
	725.4.14 = {
		death = "725.4.14"
	}
}

caylentis_0018 = { # Adrienne Caylentis, daughter of Aedan I
	name = "Adrienne"
	dynasty_house = house_caylentis
	religion = court_of_adean
	culture = entebenic
	female = yes
	
	trait = race_human
	
	father = caylentis_0016
	mother = caylentis_0007
	
	678.1.13 = {
		birth = yes
	}
	
	736.12.10 = {
		death = "736.12.10"
	}
}

caylentis_0019 = { # Aedan II Caylentis, King of Enteben
	name = "Aedan"
	dynasty_house = house_caylentis
	religion = court_of_adean
	culture = entebenic
	
	trait = race_human
	
	father = caylentis_0017
	
	700.12.31 = {
		birth = yes
	}
	
	767.5.3 = {
		death = "767.5.3"
	}
}

caylentis_0020 = { # Avandrec Caylentis, daughter of Aedan II, wife of Lorenan II Rubentis
	name = "Avandrec"
	dynasty_house = house_caylentis
	religion = court_of_adean
	culture = entebenic
	female = yes
	
	trait = race_human
	
	father = caylentis_0019
	
	727.5.10 = {
		birth = yes
	}
	
	750.1.9 = {
		add_spouse = rubentis_0013
	}
	
	787.10.13 = {
		death = "787.10.13"
	}
}

caylentis_0021 = { # Caylen V Caylentis, King of Enteben
	name = "Caylen"
	dynasty_house = house_caylentis
	religion = court_of_adean
	culture = entebenic
	
	trait = race_human
	
	father = caylentis_0019
	
	730.6.7 = {
		birth = yes
	}
	
	753.9.13 = {
		add_spouse = rubentis_0016
	}
	
	783.3.28 = {
		death = "783.3.28"
	}
}

caylentis_0022 = { # Caylen VI Caylentis, King of Enteben
	name = "Caylen"
	dynasty_house = house_caylentis
	religion = court_of_adean
	culture = entebenic
	
	trait = race_human
	
	father = caylentis_0021
	mother = rubentis_0016
	
	755.8.12 = {
		birth = yes
	}
	
	805.7.26 = {
		death = "805.7.26"
	}
}

caylentis_0023 = { # Trystane II Caylentis, King of Enteben
	name = "Trystane"
	dynasty_house = house_caylentis
	religion = court_of_adean
	culture = entebenic
	
	trait = race_human
	
	father = caylentis_0022
	
	773.1.13 = {
		birth = yes
	}
	
	818.9.9 = {
		death = "818.9.9"
	}
}

caylentis_0024 = { # Caylen VII Caylentis, King of Enteben
	name = "Caylen"
	dynasty_house = house_caylentis
	religion = court_of_adean
	culture = entebenic
	dna = 564_caylen_caylentis
	
	diplomacy = 9
	martial = 8
	stewardship = 6
	intrigue = 2
	learning = 8
	prowess = 10
	
	trait = education_diplomacy_2
	trait = race_human
	trait = lustful
	trait = gregarious
	trait = generous
	trait = rakish
	trait = beauty_good_3
	
	father = caylentis_0023
	
	798.3.8 = {
		birth = yes
		effect = {
			add_character_flag = has_scripted_appearance
		}
	}
	855.9.12 = {
		death = {
			death_reason = death_natural_causes
		}
	}
}

caylentis_0025 = { # Caylen VIII Caylentis, King of Enteben
	name = "Caylen"
	dynasty_house = house_caylentis
	religion = court_of_adean
	culture = entebenic
	
	trait = race_human
	trait = education_martial_3
	trait = brave
	trait = ambitious
	trait = gluttonous
	trait = beauty_good_2
	trait = open_terrain_expert
	
	father = caylentis_0024
	
	830.3.1 = {
		birth = yes
	}
	
	885.9.30 = {
		death = {
			death_reason = death_battle
		}
	}
}

caylentis_0026 = { # Arnalt, son of Caylen VIII, died in the same battle as him
	name = "Arnalt"
	dynasty_house = house_caylentis
	religion = court_of_adean
	culture = entebenic
	
	trait = race_human
	trait = education_martial_2
	trait = brave
	trait = stubborn
	trait = trusting
	trait = beauty_good_1
	
	father = caylentis_0025
	
	858.7.16 = {
		birth = yes
	}
	
	885.9.30 = {
		death = {
			death_reason = death_battle
		}
	}
}

caylentis_0027 = { # Gawan I Caylentis, King of Enteben
	name = "Gawan"
	dynasty_house = house_caylentis
	religion = court_of_adean
	culture = entebenic
	
	trait = race_human
	trait = education_stewardship_3
	trait = fickle
	trait = content
	trait = greedy
	trait = beauty_good_1
	trait = administrator
	
	father = caylentis_0024
	
	835.10.12 = {
		birth = yes
	}
	
	865.7.15 = {
		add_spouse = lorenti_0004
	}
	
	895.12.19 = {
		death = "895.12.19"
	}
}

caylentis_0028 = { # Aunnia Caylentis, daughter of Gawan, wife of Lorevarn II Lorentis
	name = "Aunnia"
	dynasty_house = house_caylentis
	religion = court_of_adean
	culture = entebenic
	female = yes
	
	trait = race_human
	trait = education_learning_3
	trait = zealous
	trait = shy
	trait = calm
	trait = lifestyle_gardener
	
	father = caylentis_0027
	mother = lorenti_0004
	
	869.4.7 = {
		birth = yes
	}
	
	887.5.8 = {
		add_spouse = lorentis_0001
	}
	
	946.11.19 = {
		death = "946.11.19"
	}
}

# House Lorentis, founded from the union of Rewantis and Caylentis

lorentis_0001 = { # Lorevarn II of Lorent, founder of the Lorentis house and of Lorent
	name = "Lorevarn"
	dynasty = dynasty_lorentis
	religion = court_of_adean
	culture = lorenti
	
	trait = race_human
	trait = education_diplomacy_3
	trait = just
	trait = impatient
	trait = ambitious
	trait = strategist
	trait = august
	
	father = rewantis_0018
	mother = harascilde_0019
	
	869.8.15 = {
		birth = yes
	}
	
	887.5.8 = {
		add_spouse = caylentis_0028
	}
	
	947.1.9 = {
		death = "947.1.9"
	}
}

lorentis_0002 = { # Ruben Lorentis, died before his father
	name = "Ruben"
	dynasty = dynasty_lorentis
	religion = court_of_adean
	culture = lorenti

	trait = race_human
	trait = education_martial_2
	trait = paranoid
	trait = sadistic
	trait = craven
	trait = lifestyle_hunter
	
	father = lorentis_0001
	mother = caylentis_0028
	
	887.4.9 = {
		birth = yes
	}
	
	932.5.1 = {
		death = {
			death_reason = death_hunting_mysterious
		}
	}
}

lorentis_0003 = { # Rewan VII of Lorent
	name = "Rewan"
	dynasty = dynasty_lorentis
	religion = court_of_adean
	culture = lorenti

	trait = race_human
	trait = education_learning_2
	trait = trusting
	trait = patient
	trait = gregarious
	trait = poet
	
	father = lorentis_0001
	mother = caylentis_0028
	
	890.1.20 = {
		birth = yes
	}
	
	907.9.11 = {
		add_spouse = deranne_0008
	}
	
	954.11.16 = {
		death = yes
	}
}

lorentis_0004 = { # Aunnia Lorentis, married the heir of Carneter-Dameria
	name = "Aunnia"
	dynasty = dynasty_lorentis
	religion = court_of_adean
	culture = lorenti
	female = yes
	
	trait = race_human
	trait = education_stewardship_2
	trait = chaste
	trait = arbitrary
	trait = content
	
	father = lorentis_0001
	mother = caylentis_0028
	
	895.11.5 = {
		birth = yes
	}
	
	951.1.9 = {
		death = "951.1.9"
	}
}

lorentis_0005 = { # Reanna I of Lorent
	name = "ReA_nna"
	dynasty = dynasty_lorentis
	religion = court_of_adean
	culture = lorenti
	female = yes
	
	trait = race_human
	trait = education_stewardship_4
	trait = just
	trait = patient
	trait = stubborn
	trait = poet
	
	father = lorentis_0003
	mother = deranne_0008
	
	920.10.10 = {
		birth = yes
		give_nickname = nick_whiterose
	}
	
	946.6.21 = {
		add_matrilineal_spouse = oldport_0002
	}
	
	975.2.28 = {
		death = "975.1.1"
	}
}

lorentis_0006 = { # Lorevarn Lorentis, son of Rewan VII
	name = "Lorevarn"
	dynasty = dynasty_lorentis
	religion = court_of_adean
	culture = lorenti

	trait = race_human
	trait = education_diplomacy_2
	trait = diligent
	trait = impatient
	trait = fickle
	trait = cancer
	
	father = lorentis_0003
	mother = deranne_0008
	
	928.12.30 = {
		birth = yes
	}
	
	950.6.1 = {
		death = {
			death_reason = death_cancer
		}
	}
}

lorentis_0007 = { # Reanna II "Ironglove" of Lorent
	name = "ReA_nna"
	dynasty = dynasty_lorentis
	religion = court_of_adean
	culture = lorenti
	female = yes
	
	trait = race_human
	trait = education_diplomacy_2
	trait = vengeful
	trait = callous
	trait = fickle
	trait = diplomat
	
	mother = lorentis_0005
	father = oldport_0002
	
	948.5.3 = {
		birth = yes
		give_nickname = nick_ironglove
	}
	
	964.8.15 = {
		add_matrilineal_spouse = caradantis_0008
	}
	
	978.10.20 = {
		add_matrilineal_spouse = dameris_0009
	}
	
	990.9.15 = {
		death = "990.9.15"
	}
}

lorentis_0008 = { # Lorevarn Lorentis, brother of Reanna II, rebelled against her sister
	name = "Lorevarn"
	dynasty = dynasty_lorentis
	religion = court_of_adean
	culture = lorenti
	
	trait = race_human
	trait = education_martial_3
	trait = wrathful
	trait = stubborn
	trait = gregarious
	trait = flexible_leader
	trait = lifestyle_blademaster
	
	mother = lorentis_0005
	father = oldport_0002
	
	955.9.14 = {
		birth = yes
		add_trait_xp = {
			trait = lifestyle_blademaster
			value = 50
		}
	}
	
	980.9.5 = {
		death = {
			death_reason = death_battle
		}
	}
}

lorentis_0009 = { # Korvin Lorentis, brother of Reanna II, rebelled against her sister
	name = "Korvin"
	dynasty = dynasty_lorentis
	religion = court_of_adean
	culture = lorenti
	
	trait = race_human
	trait = education_intrigue_4
	trait = ambitious
	trait = deceitful
	trait = shy
	trait = shrewd
	trait = schemer
	
	mother = lorentis_0005
	father = oldport_0002
	
	957.3.19 = {
		birth = yes
	}
	
	973.5.25 = {
		add_spouse = loop_1001
	}
	
	980.10.10 = {
		death = {
			death_reason = death_execution
			killer = lorentis_0007
		}
	}
}

loop_1001 = { # Raisenda Sil Na Loop, wife of Korvin Lorentis
	name = "Raisenda"
	dynasty_house = house_loop
	religion = court_of_adean
	culture = roilsardi
	female = yes

	trait = cynical
	trait = generous
	trait = patient
	trait = education_diplomacy_2

	trait = race_human

	948.4.23 = {
		birth = yes
	}
	
	973.5.25 = {
		add_spouse = lorentis_0009
	}
	
	1005.1.3 = {
		death = {
			death_reason = death_natural_causes
		}
	}
}

lorentis_0010 = { # Laurenne Lorentis, daughter of Reanna II
	name = "Laurenne"
	dynasty = dynasty_lorentis
	religion = court_of_adean
	culture = lorenti
	female = yes
	
	trait = race_human
	trait = education_diplomacy_2
	trait = brave
	trait = lustful
	trait = gregarious
	trait = lifestyle_reveler
	
	mother = lorentis_0007
	father = dameris_0009
	
	981.1.16 = {
		birth = yes
	}
}

lorentis_0011 = { # Rewan VIII "the Thorn of the West" of Lorent
	name = "Rewan"
	dynasty = dynasty_lorentis
	religion = court_of_adean
	culture = lorenti

	trait = race_human
	trait = education_martial_3
	trait = stubborn
	trait = patient
	trait = brave
	
	mother = lorentis_0007
	father = caradantis_0008

	969.6.21 = {
		birth = yes
	}

	990.1.1 = {
		give_nickname = nick_the_thorn_of_the_west
	}

	1014.1.4 = {
		death = {
			death_reason = death_ill
		}
	}
}

lorentis_0012 = { # Rewan Lorentis, 1st son of Rewan III
	name = "Rewan"
	dynasty = dynasty_lorentis
	religion = court_of_adean
	culture = lorenti
	father = lorentis_0011 #King Rewan the Thorn of the West

	trait = race_human

	990.12.5 = {
		birth = yes
	}

	991.1.13 = {
		give_nickname = nick_the_younger
	}

	1001.1.12 = {
		death = {
			death_reason = death_execution
			killer = the_sorcerer_king
		}
	}
}

lorentis_0013 = { # Kylian of Lorent
	name = "Kylian"
	dynasty = dynasty_lorentis
	religion = court_of_adean
	culture = lorentish
	father = lorentis_0011 #King Rewan the Thorn of the West
	
	trait = race_human
	trait = education_stewardship_1
	trait = greedy
	trait = zealous
	trait = content
	
	994.11.1 = {
		birth = yes
	}
	
	1015.11.1 = {
		death = {
			death_reason = death_murder
		}
	}
}

lorentis_0014 = { # Ruben of Lorent, married Ioriel
	name = "Ruben"
	dynasty = dynasty_lorentis
	religion = court_of_adean
	culture = lorentish
	father = lorentis_0011 #King Rewan the Thorn of the West
	
	trait = race_human
	trait = education_diplomacy_4
	trait = trusting
	trait = diligent
	trait = ambitious

	1000.1.10 = {
		birth = yes
	}

	1000.2.14 = {	#Valentines
		add_matrilineal_spouse = 15 #Ioriel
	}

	1020.10.27 = {	#During Tourney of Grand Victory
		death = {
			death_reason = death_duel
			killer = dameris_0014 # Crege of Carneter
		}
	}
}

lorentis_0015 = { # Korvin Lorentis, 4th son of Rewan III, bastard
	name = "Korvin"
	dynasty = dynasty_lorentis
	religion = court_of_adean
	culture = lorentish
	father = lorentis_0011 #King Rewan the Thorn of the West
	
	trait = education_learning_3
	trait = race_half_elf
	trait = ambitious
	trait = fickle
	trait = arrogant
	trait = bastard
	trait = magical_affinity_3


	1002.4.20 = {
		birth = yes
	}

	1020.10.31 = { #Battle of Trialmount
		death = {
			death_reason = death_battle_of_trialmount
			killer = the_sorcerer_king	#Sorcerer-King
		}
	}
}

###############
# Dynasty Caylenoris, founded by Caylentis bastard

caylenoris_0001 = {
	name = "Blethiut"
	dynasty = dynasty_caylenoris
	religion = court_of_adean
	culture = lorenti
	dna = 563_blethiut_caylenoris
	
	diplomacy = 4
	martial = 12
	stewardship = 2
	intrigue = 2
	learning = 4
	prowess = 13
	
	trait = race_human
	trait = education_martial_4
	trait = brave
	trait = humble
	trait = shy
	trait = scarred
	trait = one_eyed
	trait = bastard_founder
	
	father = caylentis_0024
	
	816.5.3 = {
		birth = yes
		effect = {
			add_character_flag = has_scripted_appearance
		}
	}
	
	868.8.6 = {
		death = {
			death_reason = death_ill
		}
	}
}

caylenoris_0002 = {
	name = "Aedan"
	dynasty = dynasty_caylenoris
	religion = court_of_adean
	culture = lorenti
	
	trait = race_human
	
	father = caylenoris_0001
	
	841.5.3 = {
		birth = yes
	}
	
	893.8.6 = {
		death = {
			death_reason = death_natural_causes
		}
	}
}

caylenoris_0003 = {
	name = "Beltram"
	dynasty = dynasty_caylenoris
	religion = court_of_adean
	culture = lorenti
	
	trait = race_human
	
	father = caylenoris_0002
	
	863.5.3 = {
		birth = yes
	}
	
	917.8.6 = {
		death = {
			death_reason = death_natural_causes
		}
	}
}

caylenoris_0004 = {
	name = "Stefen"
	dynasty = dynasty_caylenoris
	religion = court_of_adean
	culture = lorenti
	
	trait = race_human
	
	father = caylenoris_0003
	
	883.5.3 = {
		birth = yes
	}
	
	902.8.6 = {
		death = {
			death_reason = death_natural_causes
		}
	}
}

caylenoris_0005 = {
	name = "Enrouana"
	dynasty = dynasty_caylenoris
	religion = court_of_adean
	culture = lorenti
	female = yes
	
	trait = race_human
	
	father = caylenoris_0003
	
	886.2.11 = {
		birth = yes
	}
	
	908.6.18 = {
		add_spouse = aldegarde_0016
	}
	
	941.5.17 = {
		death = {
			death_reason = death_natural_causes
		}
	}
}

caylenoris_0006 = {
	name = "Roenhal"
	dynasty = dynasty_caylenoris
	religion = court_of_adean
	culture = lorenti
	female = yes
	
	trait = race_human
	
	father = caylenoris_0004
	
	913.5.3 = {
		birth = yes
	}
	
	973.8.6 = {
		death = {
			death_reason = death_natural_causes
		}
	}
}

caylenoris_0007 = {
	name = "Tuduallon"
	dynasty = dynasty_caylenoris
	religion = court_of_adean
	culture = lorenti
	
	trait = race_human
	
	mother = caylenoris_0006
	
	941.5.3 = {
		birth = yes
	}
	
	985.8.6 = {
		death = {
			death_reason = death_natural_causes
		}
	}
}

caylenoris_0008 = {
	name = "Maeloc"
	dynasty = dynasty_caylenoris
	religion = court_of_adean
	culture = lorenti
	
	diplomacy = 5
	martial = 8
	stewardship = 12
	intrigue = 2
	learning = 5
	prowess = 10
	
	trait = race_human
	trait = education_stewardship_2
	trait = trusting
	trait = stubborn
	trait = diligent
	trait = administrator
	
	father = caylenoris_0007
	
	960.5.3 = {
		birth = yes
	}
	
	978.2.10 = {
		add_spouse = lorenti_0003
	}
	
	1017.8.6 = {
		death = {
			death_reason = death_murder
		}
	}
}

# House Kyliande, elvenized Caylenoris

kyliande_0001 = {
	name = "Morganne"
	dynasty_house = house_kyliande
	religion = court_of_adean
	culture = lorentish
	female = yes
	dna = 553_morganne_sil_kyliande
	
	diplomacy = 12
	martial = 6
	stewardship = 8
	intrigue = 10
	learning = 8
	prowess = 2
	
	trait = race_human
	trait = education_diplomacy_3
	trait = patient
	trait = deceitful
	trait = generous
	trait = beauty_good_3
	
	mother = lorenti_0003
	father = caylenoris_0008
	
	1000.1.1 = {
		birth = yes
		effect = {
            add_character_flag = has_scripted_appearance
        }
	}
	
	1021.8.10 = {
		add_matrilineal_spouse = 555
		effect = {
			set_relation_nemesis = character:554
			set_relation_lover = character:555
			set_relation_lover = character:554
		}
		add_pressed_claim = title:c_palevine
		add_pressed_claim = title:c_greenfield
	}
}

###############
# Dynasty Derhilding

derhilde_reaverqueen = { # Derhilde "Reaverqueen"
	name = "Derhilde"
	dynasty = dynasty_derhilding
	religion = skaldhyrric_faith
	culture = olavish
	female = yes
	
	trait = race_human
	trait = education_martial_3
	trait = ambitious
	trait = deceitful
	trait = brave
	trait = reaver
	trait = shieldmaiden
	
	825.12.22 = {
		birth = yes
	}
	
	869.2.26 = {
		give_nickname = nick_reaverqueen
	}
	
	892.11.12 = {
		death = "892.11.12"
	}
}

deranne_0001 = { # Askel Derhilding, King of Deranne
	name = "Askel"
	dynasty = dynasty_derhilding
	religion = court_of_adean
	culture = olavish
	
	trait = race_human
	trait = education_stewardship_2
	trait = temperate
	trait = content
	trait = trusting
	
	mother = derhilde_reaverqueen
	
	853.3.16 = {
		birth = yes
	}
	
	912.11.16 = {
		death = "912.11.16"
	}
}

deranne_0002 = { # Katarina Derhilding
	name = "Katarina"
	dynasty = dynasty_derhilding
	religion = skaldhyrric_faith
	culture = olavish
	female = yes
	
	trait = race_human
	
	mother = derhilde_reaverqueen
	
	857.7.14 = {
		birth = yes
	}
	
	900.1.27 = {
		death = "900.1.27"
	}
}

deranne_0003 = { # Gunnar Derhilding, King of Deranne
	name = "Gunnar"
	dynasty = dynasty_derhilding
	religion = skaldhyrric_faith
	culture = olavish
	
	trait = race_human
	trait = education_martial_3
	trait = brave
	trait = arrogant
	trait = wrathful
	trait = reaver
	
	mother = derhilde_reaverqueen
	
	865.3.30 = {
		birth = yes
	}
	
	924.5.21 = {
		death = "924.5.21"
	}
}

deranne_0004 = { # Hjalmar Derhilding, ex King of Deranne, Duke of Darom
	name = "Hjalmar"
	dynasty = dynasty_derhilding
	religion = skaldhyrric_faith
	culture = olavish
	
	trait = race_human
	trait = education_intrigue_1
	trait = deceitful
	trait = vengeful
	trait = craven
	
	father = deranne_0003
	
	892.11.23 = {
		birth = yes
	}
	
	930.5.26 = {
		death = {
			death_reason = death_execution
			killer = deranne_0009
		}
	}
}

deranne_0005 = { # Haakon Derhilding, Duke of Darom
	name = "Haakon"
	dynasty = dynasty_derhilding
	religion = skaldhyrric_faith
	culture = derannic
	
	trait = race_human
	trait = education_stewardship_1
	trait = content
	trait = patient
	trait = compassionate
	
	father = deranne_0003
	
	899.1.24 = {
		birth = yes
	}
	
	956.8.19 = {
		death = "956.8.19"
	}
}

deranne_0006 = { # Daroman Derhilding
	name = "Daromdan"
	dynasty = dynasty_derhilding
	religion = skaldhyrric_faith
	culture = derannic
	
	trait = race_human
	trait = fickle
	trait = impatient
	trait = generous
	
	father = deranne_0005
	
	940.1.24 = {
		birth = yes
	}
	
	955.7.31 = {
		death = "955.7.31"
	}
}

deranne_0007 = { # Maurice Derhilding
	name = "Maurice"
	dynasty = dynasty_derhilding
	religion = court_of_adean
	culture = derannic
	
	trait = race_human
	trait = education_martial_1
	trait = brave
	trait = impatient
	trait = wrathful
	
	father = deranne_0001
	
	882.3.19 = {
		birth = yes
	}
	
	912.11.16 = {
		death = {
			death_reason = death_duel
			killer = deranne_0003
		}
	}
}

deranne_0008 = { # Anna Derhilding
	name = "Anna"
	dynasty = dynasty_derhilding
	religion = court_of_adean
	culture = derannic
	female = yes
	
	trait = race_human
	trait = education_diplomacy_2
	trait = gregarious
	trait = honest
	trait = temperate
	
	father = deranne_0001
	
	890.7.25 = {
		birth = yes
	}
	
	907.9.11 = {
		add_spouse = lorentis_0003
	}
	
	951.2.17 = {
		death = "951.2.17"
	}
}

# House of Deranne, lencorized house

deranne_0009 = { # Tomar I of Deranne, King of Deranne
	name = "Tomar"
	dynasty_house = house_deranne
	religion = court_of_adean
	culture = derannic
	
	trait = race_human
	trait = education_stewardship_2
	trait = diligent
	trait = just
	trait = compassionate
	
	father = deranne_0001
	
	900.4.10 = {
		birth = yes
	}
	
	957.8.4 = {
		death = "957.8.4"
	}
}

deranne_0010 = { # Artus of Deranne, King of Deranne
	name = "Artus"
	dynasty_house = house_deranne
	religion = court_of_adean
	culture = derannic
	
	trait = race_human
	
	father = deranne_0009
	
	920.2.16 = {
		birth = yes
	}
	
	963.6.26 = {
		death = "963.6.26"
	}
}

deranne_0011 = { # Tomar II of Deranne, King of Deranne
	name = "Tomar"
	dynasty_house = house_deranne
	religion = court_of_adean
	culture = derannic
	
	trait = race_human
	
	father = deranne_0010
	
	942.4.21 = {
		birth = yes
	}
	
	990.9.20 = {
		death = "990.9.20"
	}
}

deranne_0012 = { # Kalbard of Deranne, King of Deranne
	name = "Kalbard"
	dynasty_house = house_deranne
	religion = court_of_adean
	culture = derannic

	diplomacy = 4
	martial = 13
	stewardship = 7
	intrigue = 4
	learning = 14
	
	trait = race_human
	trait = education_learning_2
	trait = temperate
	trait = stubborn
	trait = chaste
	
	father = deranne_0011
	
	960.10.3 = {
		birth = yes
	}
}

###############
# Dynasty Harascilde

harascilde_0001 = { # Breselgar of Harascilde, Lord of Harascilde
	name = "Breselgar"
	dynasty = dynasty_harascilde
	culture = lorenti
	religion = eidoueni
	
	trait = race_human
	
	427.6.1 = {
		birth = yes
	}
	
	489.3.16 = {
		death = "489.3.16"
	}
}

harascilde_0002 = { # Rewan of Harascilde, Count of Rewanfork
	name = "Rewan"
	dynasty = dynasty_harascilde
	culture = lorenti
	religion = eidoueni
	
	trait = race_human
	
	father = harascilde_0001
	
	465.12.1 = {
		birth = yes
	}
	
	515.7.19 = {
		death = "515.7.19"
	}
}

harascilde_0003 = { # Fracan I of Harascilde, Count of Rewanfork
	name = "Fracan"
	dynasty = dynasty_harascilde
	culture = lorenti
	religion = eidoueni
	
	trait = race_human
	
	father = harascilde_0002
	
	510.5.25 = {
		birth = yes
	}
	
	556.3.7 = {
		death = "556.3.7"
	}
}

harascilde_0004 = { # Elesbed of Harascilde, first wife of Rewan Ironbark
	name = "Elesbed"
	dynasty = dynasty_harascilde
	culture = lorenti
	religion = eidoueni
	female = yes
	
	trait = race_human
	
	father = harascilde_0003
	
	527.9.18 = {
		birth = yes
	}
	
	545.3.9 = {
		add_spouse = rewantis_0001
	}
	
	550.5.5 = {
		death = {
			death_reason = death_childbirth
		}
	}
}

harascilde_0005 = { # Cadarvan of Harascilde, Count of Rewanfork
	name = "Cadarvan"
	dynasty = dynasty_harascilde
	culture = lorenti
	religion = eidoueni
	
	trait = race_human
	
	father = harascilde_0003
	
	540.5.8 = {
		birth = yes
	}
	
	587.11.10 = {
		death = "587.11.10"
	}
}

harascilde_0006 = { # Fracan II of Harascilde, Count of Rewanfork
	name = "Fracan"
	dynasty = dynasty_harascilde
	culture = lorenti
	religion = eidoueni
	
	trait = race_human
	
	father = harascilde_0005
	
	561.5.29 = {
		birth = yes
	}
	
	604.7.4 = {
		death = "604.7.4"
	}
}

harascilde_0007 = { # Margery of Harascilde, wife of Ricart Aldegarde
	name = "Margery"
	dynasty = dynasty_harascilde
	culture = lorenti
	religion = eidoueni
	female = yes
	
	trait = race_human
	
	father = harascilde_0006
	
	585.1.31 = {
		birth = yes
	}
	
	606.3.10 = {
		add_spouse = aldegarde_0002
	}
	
	638.3.18 = {
		death = "638.3.18"
	}
}

harascilde_0008 = { # Caradan I of Harascilde, Lord Regent and Count of Rewanfork
	name = "Caradan"
	dynasty = dynasty_harascilde
	culture = lorenti
	religion = eidoueni
	
	trait = race_human
	
	father = harascilde_0006
	
	594.4.11 = {
		birth = yes
	}
	
	668.11.13 = {
		death = "668.11.13"
	}
}

harascilde_0009 = { # Hesdren of Harascilde, Count of Rewanfork
	name = "Hesdren"
	dynasty = dynasty_harascilde
	culture = lorenti
	religion = eidoueni
	
	trait = race_human
	
	father = harascilde_0008
	
	629.7.13 = {
		birth = yes
	}
	
	650.3.25 = {
		add_spouse = crownscour_0002
	}
	
	670.10.9 = {
		death = "670.10.9"
	}
}

harascilde_0010 = { # Caradan II of Harascilde, Lord Regent and Count of Rewanfork
	name = "Caradan"
	dynasty = dynasty_harascilde
	culture = lorenti
	religion = eidoueni
	
	trait = race_human
	
	father = harascilde_0009
	mother = crownscour_0002
	
	660.5.10 = {
		birth = yes
	}
	
	712.9.12 = {
		death = "712.9.12"
	}
}

harascilde_0011 = { # Iseult of Harascilde
	name = "Iseult"
	dynasty = dynasty_harascilde
	culture = lorenti
	religion = eidoueni
	female = yes
	
	trait = race_human
	
	father = harascilde_0009
	mother = crownscour_0002
	
	665.4.12 = {
		birth = yes
	}
	
	725.12.8 = {
		death = "725.12.8"
	}
}

harascilde_0012 = { # Florien of Harascilde, Count of Rewanfork
	name = "Florien"
	dynasty = dynasty_harascilde
	culture = lorenti
	religion = eidoueni
	
	trait = race_human
	
	father = harascilde_0010
	
	683.8.17 = {
		birth = yes
	}
	
	720.9.5 = {
		death = "720.9.5"
	}
}

harascilde_0013 = { # Artan I "the Falcon" of Harascilde, Lord Regent and Count of Rewanfork
	name = "Artan"
	dynasty = dynasty_harascilde
	culture = lorenti
	religion = eidoueni
	
	trait = race_human
	
	father = harascilde_0012
	
	710.12.24 = {
		birth = yes
		give_nickname = nick_the_falcon
	}
	
	754.5.14 = {
		death = "754.5.14"
	}
}

harascilde_0014 = { # Lorens of Harascilde, Lord Regent and Count of Rewanfork
	name = "Lorens"
	dynasty = dynasty_harascilde
	culture = lorenti
	religion = eidoueni
	
	trait = race_human
	
	father = harascilde_0013
	
	737.9.5 = {
		birth = yes
	}
	
	789.10.12 = {
		death = "789.10.12"
	}
}

harascilde_0015 = { # Ruben "the Handsome" of Harascilde, Lord Regent and Count of Rewanfork
	name = "Ruben"
	dynasty = dynasty_harascilde
	culture = lorenti
	religion = eidoueni
	
	trait = race_human
	
	father = harascilde_0014
	
	764.5.14 = {
		birth = yes
		give_nickname = nick_the_handsome
	}
	
	810.6.8 = {
		death = "810.6.8"
	}
}

harascilde_0016 = { # Margery of Harascilde
	name = "Margery"
	dynasty = dynasty_harascilde
	culture = lorenti
	religion = eidoueni
	female = yes
	
	trait = race_human
	
	father = harascilde_0015
	
	788.2.1 = {
		birth = yes
	}
	
	850.5.15 = {
		death = "850.5.15"
	}
}

harascilde_0017 = { # Artan II of Harascilde, Lord Regent and Count of Rewanfork
	name = "Artan"
	dynasty = dynasty_harascilde
	culture = lorenti
	religion = eidoueni
	
	trait = race_human
	
	father = harascilde_0015
	
	791.10.15 = {
		birth = yes
	}
	
	855.12.13 = {
		death = "855.12.13"
	}
}

harascilde_0018 = { # Caradan III "the Brave" of Harascilde, Lord Regent and Count of Rewanfork
	name = "Caradan"
	dynasty = dynasty_harascilde
	culture = lorenti
	religion = eidoueni
	
	trait = race_human
	
	father = harascilde_0017
	
	829.12.31 = {
		birth = yes
	}
	
	869.2.25 = {
		give_nickname = nick_the_brave
		death = {
			death_reason = death_battle
		}
	}
}

harascilde_0019 = { # Iseult of Harascilde, wife of Lorevarn II Rewantis
	name = "Iseult"
	dynasty = dynasty_harascilde
	culture = lorenti
	religion = eidoueni
	female = yes
	
	trait = race_human
	
	father = harascilde_0018
	
	848.4.29 = {
		birth = yes
	}
	
	868.12.8 = {
		add_spouse = rewantis_0018
	}
	
	901.11.1 = {
		death = "901.11.1"
	}
}

harascilde_0020 = { # Artan III of Harascilde, Count of Rewanfork
	name = "Artan"
	dynasty = dynasty_harascilde
	culture = lorenti
	religion = eidoueni
	
	trait = race_human
	
	father = harascilde_0018
	
	852.8.10 = {
		birth = yes
	}
	
	879.5.13 = {
		death = "879.5.13"
	}
}

harascilde_0021 = { # Adrien I of Harascilde, Count of Rewanfork
	name = "Adrien"
	dynasty = dynasty_harascilde
	culture = lorenti
	religion = eidoueni
	
	trait = race_human
	
	father = harascilde_0018
	
	861.10.6 = {
		birth = yes
	}
	
	936.6.30 = {
		death = "936.6.30"
	}
}

harascilde_0022 = { # Rewan II of Harascilde, Count of Rewanfork
	name = "Rewan"
	dynasty = dynasty_harascilde
	culture = lorenti
	religion = eidoueni
	
	trait = race_human
	
	father = harascilde_0021
	
	886.9.7 = {
		birth = yes
	}
	
	947.6.12 = {
		death = "947.6.12"
	}
}

harascilde_0023 = { # Iseult of Harascilde, wife of Emmeran I Caradantis
	name = "Iseult"
	dynasty = dynasty_harascilde
	culture = lorenti
	religion = eidoueni
	female = yes
	
	trait = race_human
	
	father = harascilde_0022
	
	930.6.3 = {
		birth = yes
	}
	
	946.6.5 = {
		add_spouse = caradantis_0006
	}
	
	989.5.10 = {
		death = "989.5.10"
	}
}

harascilde_0024 = { # Adrien II of Harascilde, Count of Rewanfork
	name = "Adrien"
	dynasty = dynasty_harascilde
	culture = lorenti
	religion = eidoueni
	
	trait = race_human
	
	father = harascilde_0022
	
	935.11.18 = {
		birth = yes
	}
	
	952.1.9 = {
		add_spouse = caradantis_0007
	}
	
	979.5.14 = {
		death = "979.5.14"
	}
}

harascilde_0025 = { # Artan IV of Harascilde, Count of Rewanfork
	name = "Artan"
	dynasty = dynasty_harascilde
	culture = lorenti
	religion = eidoueni
	
	trait = race_human
	
	father = harascilde_0024
	mother = caradantis_0007
	
	953.7.17 = {
		birth = yes
	}
	
	996.8.14 = {
		death = {
			death_reason = death_killed_war_of_sorcerer_king
		}
	}
}

harascilde_0026 = {  # Caradan IV "the Shield of the West" of Harascilde, Count of Rewanfork
	name = "Caradan"
	dynasty = dynasty_harascilde
	religion = eidoueni
	culture = lorentish
	dna = dna_caradan_the_shield_of_the_west
	
	trait = race_human
	trait = education_martial_3
	trait = temperate
	trait = brave
	trait = just
	trait = physique_good_2
	trait = education_martial_prowess_3
	
	father = harascilde_0025
	
	979.10.7 = {
		birth = yes
		effect = {
			add_character_flag = has_scripted_appearance
		}
	}
	
	1000.1.1 = {
		give_nickname = nick_the_shield_of_the_west
	}
}

###############
# Dynasty Aldegarde

aldegarde_0001 = { # Ruben Aldegarde, Count of Riverside
	name = "Ruben"
	dynasty = dynasty_aldegarde
	religion = court_of_adean
	culture = lorenti
	
	trait = race_human
	
	552.7.19 = {
		birth = yes
	}
	
	602.1.15 = {
		death = "602.1.15"
	}
}

aldegarde_0002 = { # Ricart I Aldegarde, Count of Riverside
	name = "Ricart"
	dynasty = dynasty_aldegarde
	religion = court_of_adean
	culture = lorenti
	
	trait = race_human
	
	father = aldegarde_0001
	
	587.4.11 = {
		birth = yes
	}
	
	606.3.10 = {
		add_spouse = harascilde_0007
	}
	
	639.8.21 = {
		death = "639.8.21"
	}
}

aldegarde_0003 = { # Lisanne Aldegarde, wife of Riol of Crownscour
	name = "Lisanne"
	dynasty = dynasty_aldegarde
	religion = court_of_adean
	culture = lorenti
	female = yes
	
	trait = race_human
	
	father = aldegarde_0001
	
	593.9.14 = {
		birth = yes
	}
	
	620.8.26 = {
		add_spouse = crownscour_0001
	}
	
	648.12.3 = {
		death = "648.12.3"
	}
}

aldegarde_0004 = { # Lorens Aldegarde, Lord Regent and Count of Riverside
	name = "Lorens"
	dynasty = dynasty_aldegarde
	religion = court_of_adean
	culture = lorenti
	
	trait = race_human
	
	father = aldegarde_0002
	mother = harascilde_0007
	
	612.3.10 = {
		birth = yes
	}
	
	676.2.18 = {
		death = "676.2.18"
	}
}

aldegarde_0005 = { # Ricart II Aldegarde, Count of Riverside
	name = "Ricart"
	dynasty = dynasty_aldegarde
	religion = court_of_adean
	culture = lorenti
	
	trait = race_human
	
	father = aldegarde_0004
	
	644.8.22 = {
		birth = yes
	}
	
	656.2.19 = {
		add_spouse = crownscour_0004
	}
	
	712.12.7 = {
		death = "712.12.7"
	}
}

aldegarde_0006 = { # Mauric Aldegarde, Count of Riverside
	name = "Mauric"
	dynasty = dynasty_aldegarde
	religion = court_of_adean
	culture = lorenti
	
	trait = race_human
	
	father = aldegarde_0005
	mother = crownscour_0004
	
	678.9.4 = {
		birth = yes
	}
	
	740.2.13 = {
		death = "740.2.13"
	}
}

aldegarde_0007 = { # Riol I Aldegarde, Count of Riverside
	name = "Riol"
	dynasty = dynasty_aldegarde
	religion = court_of_adean
	culture = lorenti
	
	trait = race_human
	
	father = aldegarde_0006
	
	705.5.5 = {
		birth = yes
	}
	
	760.7.16 = {
		death = "760.7.16"
	}
}

aldegarde_0008 = { # Morganne Aldegarde
	name = "Morganne"
	dynasty = dynasty_aldegarde
	religion = court_of_adean
	culture = lorenti
	female = yes
	
	trait = race_human
	
	father = aldegarde_0007
	
	740.10.13 = {
		birth = yes
	}
	
	795.6.7 = {
		death = "795.6.7"
	}
}

aldegarde_0009 = { # Ricart III "the Late" Aldegarde, Count of Riverside
	name = "Ricart"
	dynasty = dynasty_aldegarde
	religion = court_of_adean
	culture = lorenti
	
	trait = race_human
	
	father = aldegarde_0007
	
	750.9.9 = {
		birth = yes
	}
	
	810.4.8 = {
		give_nickname = nick_the_late
		death = "810.4.8"
	}
}

aldegarde_0010 = { # Morgan I Aldegarde, Count of Riverside
	name = "Morgan"
	dynasty = dynasty_aldegarde
	religion = court_of_adean
	culture = lorenti
	
	trait = race_human
	
	father = aldegarde_0009
	
	775.11.19 = {
		birth = yes
	}
	
	830.4.23 = {
		death = "830.4.23"
	}
}

aldegarde_0011 = { # Riol II Aldegarde, Count of Riverside
	name = "Riol"
	dynasty = dynasty_aldegarde
	religion = court_of_adean
	culture = lorenti
	
	trait = race_human
	
	father = aldegarde_0010
	
	800.4.19 = {
		birth = yes
	}
	
	842.8.8 = {
		death = "842.8.8"
	}
}

aldegarde_0012 = { # Morgan II Aldegarde, Count of Riverside
	name = "Morgan"
	dynasty = dynasty_aldegarde
	religion = court_of_adean
	culture = lorenti
	
	trait = race_human
	
	father = aldegarde_0011
	
	828.7.3 = {
		birth = yes
	}
	
	868.3.4 = {
		death = "868.3.4"
	}
}

aldegarde_0013 = { # Iseult Aldegarde
	name = "Iseult"
	dynasty = dynasty_aldegarde
	religion = court_of_adean
	culture = lorenti
	female = yes
	
	trait = race_human
	
	father = aldegarde_0011
	
	830.10.2 = {
		birth = yes
	}
	
	879.1.10 = {
		death = "879.1.10"
	}
}

aldegarde_0014 = { # Geraint Aldegarde, Count of Riverside
	name = "Geraint"
	dynasty = dynasty_aldegarde
	religion = court_of_adean
	culture = lorenti
	
	trait = race_human
	
	father = aldegarde_0012
	
	856.10.23 = {
		birth = yes
	}
	
	889.1.22 = {
		death = "889.1.22"
	}
}

aldegarde_0015 = { # Arabel Aldegarde
	name = "Arabel"
	dynasty = dynasty_aldegarde
	religion = court_of_adean
	culture = lorenti
	female = yes
	
	trait = race_human
	
	father = aldegarde_0014
	
	887.5.28 = {
		birth = yes
	}
	
	938.11.16 = {
		death = "938.11.16"
	}
}

aldegarde_0016 = { # Guillame Aldegarde, Duke of Wineside
	name = "Guillame"
	dynasty = dynasty_aldegarde
	religion = court_of_adean
	culture = lorenti
	
	trait = race_human
	
	father = aldegarde_0014
	
	888.9.18 = {
		birth = yes
	}
	
	908.6.18 = {
		add_spouse = caylenoris_0005
	}
	
	961.11.29 = {
		death = "961.11.29"
	}
}

aldegarde_0017 = { # Gawan Aldegarde
	name = "Gawan"
	dynasty = dynasty_aldegarde
	religion = court_of_adean
	culture = lorenti
	
	trait = race_human
	
	father = aldegarde_0016
	mother = caylenoris_0005
	
	912.12.14 = {
		birth = yes
	}
	
	937.9.20 = {
		add_spouse = oldport_0003
	}
	
	958.9.11 = {
		death = "958.9.11"
	}
}

aldegarde_0018 = { # Rewan "the Banished" Aldegarde
	name = "Rewan"
	dynasty = dynasty_aldegarde
	religion = court_of_adean
	culture = lorenti
	
	trait = race_human
	
	father = aldegarde_0016
	mother = caylenoris_0005
	
	920.4.15 = {
		birth = yes
	}
	
	977.11.12 = {
		give_nickname = nick_the_banished
		death = "977.11.12"
	}
}

aldegarde_0019 = { # Athara Aldegarde, Duchess of Wineside
	name = "Athara"
	dynasty = dynasty_aldegarde
	religion = court_of_adean
	culture = lorenti
	female = yes
	
	trait = race_human
	
	father = aldegarde_0017
	
	940.2.26 = {
		birth = eys
	}
	
	997.11.15 = {
		death = "997.11.15"
	}
}

aldegarde_0020 = { # Roger Aldegarde, Duke of Ainethan
	name = "Roger"
	dynasty = dynasty_aldegarde
	religion = court_of_adean
	culture = lorentish
	
	trait = race_human
	trait = education_martial_3
	trait = brave
	trait = diligent
	trait = just
	trait = physique_good_1
	trait = beauty_good_1
	trait = lifestyle_blademaster
	
	diplomacy = 6
	martial = 4
	stewardship = 10
	intrigue = 6
	learning = 6
	prowess = 8
	
	mother = aldegarde_0019
	
	978.02.12 = {
		birth = yes
		add_trait_xp = {
			trait = lifestyle_blademaster
			value = 50
		}
	}
	
	1019.03.10 = {
		death = {
			death_reason = death_natural_causes
		}
	}
}

aldegarde_0021 = { # Adelinde Aldegarde, Duchess of Ainethan
	name = "Adelinde"
	dynasty = dynasty_aldegarde
	religion = court_of_adean
	culture = lorentish
	female = yes
	dna = 175_adelinde_aldegarde
	
	diplomacy = 2
	martial = 8
	stewardship = 2
	intrigue = 4
	learning = 6
	prowess = 6
	
	trait = race_half_elf
	trait = education_martial_3
	trait = brave
	trait = ambitious
	trait = diligent
	trait = physique_good_1
	trait = beauty_good_2
	
	father = aldegarde_0020
	mother = 177
	
	1003.01.01 = {
		birth = yes
	}
}

aldegarde_0022 = { # Beleranor Aldegarde
	name = "Beleranor"
	dynasty = dynasty_aldegarde
	religion = court_of_adean
	culture = lorentish
	
	diplomacy = 4
	martial = 6
	stewardship = 4
	intrigue = 8
	learning = 10
	prowess = 6
	
	trait = race_half_elf
	trait = pensive
	trait = magical_affinity_1
	trait = intellect_good_1
	trait = beauty_good_2
	
	father = aldegarde_0020
	mother = 177
	
	1019.10.05 = {
		birth = yes
	}
}

###############
# Dynasty Crownscour

crownscour_0001 = { # Riol I of Crownscour
	name = "Riol"
	dynasty = dynasty_crownscour
	religion = court_of_adean
	culture = lorenti
	
	trait = race_human
	
	598.8.10 = {
		birth = yes
	}
	
	620.8.26 = {
		add_spouse = aldegarde_0003
	}
	
	655.10.16 = {
		death = "655.10.16"
	}
}

crownscour_0002 = { # Riola of Crownscour, wife of Hesdren Harascilde
	name = "Riola"
	dynasty = dynasty_crownscour
	religion = court_of_adean
	culture = lorenti
	female = yes
	
	trait = race_human
	
	father = crownscour_0001
	
	627.10.18 = {
		birth = yes
	}
	
	650.3.25 = {
		add_spouse = harascilde_0009
	}
	
	683.12.5 = {
		death = "683.12.5"
	}
}

crownscour_0003 = { # Florien of Crownscour, Lord Regent and Count of Lorenmark
	name = "Florien"
	dynasty = dynasty_crownscour
	religion = court_of_adean
	culture = lorenti
	
	trait = race_human
	
	father = crownscour_0001
	
	660.7.13 = {
		birth = yes
	}
	
	697.2.2 = {
		death = "697.2.2"
	}
}

crownscour_0004 = { # Florienne of Crownscour, wife of Ricart II Aldegarde
	name = "Florienne"
	dynasty = dynasty_crownscour
	religion = court_of_adean
	culture = lorenti
	female = yes
	
	trait = race_human
	
	father = crownscour_0003
	
	657.10.3 = {
		birth = yes
	}
	
	656.2.19 = {
		add_spouse = aldegarde_0005
	}
	
	709.5.14 = {
		death = "709.5.14"
	}
}

crownscour_0005 = { # Riol II of Crownscour, Count of Lorenmark
	name = "Riol"
	dynasty = dynasty_crownscour
	religion = court_of_adean
	culture = lorenti
	
	trait = race_human
	
	father = crownscour_0003
	
	664.6.27 = {
		birth = yes
	}
	
	723.2.25 = {
		death = "723.2.25"
	}
}

crownscour_0006 = { # Artan of Crownscour
	name = "Artan"
	dynasty = dynasty_crownscour
	religion = court_of_adean
	culture = lorenti
	
	trait = race_human
	
	father = crownscour_0005
	
	695.5.26 = {
		birth = yes
	}
	
	719.1.11 = {
		death = "719.1.11"
	}
}

###############
# Dynasty Oldport

oldport_0001 = { # Garmon of Oldport
	name = "Garmon"
	dynasty = dynasty_oldport
	religion = court_of_adean
	culture = lorenti
	
	trait = race_human
	
	888.11.27 = {
		birth = yes
	}
	
	938.4.6 = {
		death = "938.4.6"
	}
}

oldport_0002 = { # Barwen of Oldport, husband of Reanna I
	name = "Barwen"
	dynasty = dynasty_oldport
	religion = court_of_adean
	culture = lorenti
	
	trait = race_human
	trait = education_martial_3
	trait = fickle
	trait = zealous
	trait = trusting
	trait = logistician
	
	father = oldport_0001
	
	918.2.23 = {
		birth = yes
	}
	
	976.1.2 = {
		death = "976.1.2"
	}
}

oldport_0003 = { # Corale of Oldport, wife of Gawan Aldegarde
	name = "Corale"
	dynasty = dynasty_oldport
	religion = court_of_adean
	culture = lorenti
	
	trait = race_human
	
	father = oldport_0001
	
	920.4.8 = {
		birth = yes
	}
	
	937.9.20 = {
		add_spouse = aldegarde_0017
	}
	
	982.3.23 = {
		death = "832.3.23"
	}
}

###############
# random dudes
lorenti_0001 = { # Hedren of Threeflowers, Mayor of Lorent-by-the-river, first Lord Regent
	name = "Hesdren"
	dynasty = dynasty_threeflowers # lowborn but ck3 force a random dynasty so here it is
	religion = court_of_adean
	culture = lorenti
	
	584.4.28 = {
		birth = yes
	}
	
	640.11.9 = {
		death = "640.11.9"
	}
}

lorenti_0002 = { # Rugern, High Prient of Highcour, Lord Regent
	name = "Rugern"
	dyansty = dynasty_highcour # lowborn but ck3 force a random dynasty so here it is
	religion = court_of_adean
	culture = lorenti
	
	661.9.30 = {
		birth = yes
	}
	
	730.8.24 = {
		death = "730.8.24"
	}
}

lorenti_0003 = { # Ildegarda, wife of Maeloc Caylenoris
	name = "Ildegarda"
	#lowborn
	religion = court_of_adean
	culture = lorenti
	female = yes
	
	diplomacy = 8
	martial = 2
	stewardship = 8
	intrigue = 6
	learning = 8
	prowess = 2
	
	trait = race_human
	trait = education_diplomacy_2
	trait = craven
	trait = gregarious
	trait = compassionate
	trait = physique_bad_1
	
	965.1.8 = {
		birth = yes
	}
	
	1000.1.1 = {
		death = {
			death_reason = death_childbirth
		}
	}
}

lorenti_0004 = { # Enora, wife of Gawan Caylentis
	name = "Enora"
	# daughter of the lord-mayor of wineport
	religion = house_of_minara
	culture = lorenti
	female = yes
	
	trait = race_human
	trait = education_stewardship_2
	trait = gregarious
	trait = impatient
	trait = diligent
	trait = physique_bad_2
	
	845.5.11 = {
		birth = yes
	}
	
	865.7.15 = {
		add_spouse = caylentis_0027
	}
	
	910.6.6 = {
		death = "910.6.6"
	}
}

###############

20000 = { #Thayen - Duke of Lower Bloodwine
	name = "Talan"
	dna = 20000_duke_thayen
	dynasty = dynasty_aubergentis
	religion = house_of_minara
	culture = lorenti

	diplomacy = 3
	martial = 7
	stewardship = 3
	intrigue = 5
	learning = 4
	prowess = 8

	trait = arrogant
	trait = brave
	trait = wrathful
	trait = education_martial_3
	trait = physique_good_1
	trait = scarred
	trait = irritable
	trait = open_terrain_expert
	
	978.12.4 = {
		birth = yes
	}

	999.9.29 = {
		add_spouse = 20003
	}

	1020.2.6 = {
		add_spouse = 20004
		effect = {
			add_trait = human_purist
			set_variable = {
				name = racial_attitude_set
				value = yes
			}
		}
	}
}

20001 = { #Thayen's firstborn
	name = "Calas"
	dna = 20001_calas_aubergentis
	dynasty = dynasty_aubergentis
	religion = house_of_minara
	culture = lorentish
	father = 20000
	mother = 20003

	diplomacy = 5
	martial = 1
	stewardship = 4
	intrigue = 2
	learning = 8
	prowess = 0

	trait = lustful
	trait = content
	trait = trusting
	trait = education_learning_3
	trait = physique_bad_1
	trait = scarred

	1005.5.20 = {
		birth = yes
	}

	1012.5.10 = {
		effect={
			set_relation_guardian = character:20005
			set_relation_friend = character:20005
			reverse_add_opinion = {
				modifier = disappointed_opinion
				opinion = -100
				target = character:20000
			}
		}
	}

	1021.5.20 = {
		effect={
			remove_relation_guardian = character:20005
		}
	}
}

20002 = {  #Thayen's secondborn
	name = "Riualtr"
	dna = 20002_adran_aubergentis
	dynasty = dynasty_aubergentis
	religion = house_of_minara
	culture = lorenti
	father = 20000
	mother = 20004

	diplomacy = 4
	martial = 4
	stewardship = 4
	intrigue = 4
	learning = 4
	prowess = 4

	trait = physique_good_1
	
	1020.12.4 = {
		birth = yes
	}
}

20003 = {  #Thayen's (dead) wife
	name = "Elwen"
	dna = 20003_aria_aubergentis
	dynasty = dynasty_aubergentis
	religion = house_of_minara
	culture = lorenti
	female = yes
	
	985.1.7 = {
		birth = yes
	}

	1005.5.20 = { #Died giving birth to Calas
		death = {
			death_reason = death_childbirth
		}
	}
}

20004 = {  #Thayen's (gamestart) wife
	name = "Susanne"
	dna = 20004_isobel_aubergentis
	dynasty = dynasty_aubergentis
	religion = house_of_minara
	culture = lorenti
	female = yes
	
	trait = temperate
	trait = impatient
	trait = ambitious

	993.1.7 = {
		birth = yes
	}
}

20005 = {  #Cala's elven guardian while Thayen was away at war
	name = "Ivran"
	dna = 20005_ivran
	religion = elven_forebears
	culture = moon_elvish
	
	trait = temperate
	trait = trusting
	trait = lazy

	917.1.7 = {
		birth = yes
		effect = {
			set_to_lowborn = yes
		}
	}

	1012.5.10 = {
		employer = 20000
	}
	
	1019.8.15 = {
		effect = {
			reverse_add_opinion = {
				modifier = ruined_my_heir_opinion
				target = character:20000
			}

			reverse_add_opinion = {
				modifier = mentored_me_opinion
				target = character:20001
			}
		}
	}
}

20006 = {
	name = "Ricain"
	dynasty = dynasty_casnaview
	religion = court_of_adean
	culture = lorenti
	
	965.2.8 = {
		birth = yes
	}

	985.10.10 = {
		add_spouse = 20008
	}
}

20007 = {
	name = "Vernell"
	dynasty = dynasty_casnaview
	religion = court_of_adean
	culture = lorenti

	father = 20006
	mother = 20008
	
	994.4.6 = {
		birth = yes
	}
}

20008 = {
	name = "Sofie"
	#
	religion = court_of_adean
	culture = lorenti
	female = yes
	
	965.1.17 = {
		birth = yes
	}

	985.10.10 = {
		add_spouse = 20006
	}
}
